Bookend commands
…
Large pull

## median earnings for students who first enrolled in a public
## college in the New England or Mid-Atlantic regions: 10 years later
df <- sc_init() %>% 
    sc_filter(control == 1, region == 1:2, ccbasic == 1:24) %>% 
    sc_select(unitid, instnm, md_earn_wne_p10) %>% 
    sc_year(2009) %>%
    sc_get()
#> Large request will require: 2 additional pulls.
#> Request chunk 1
#> Request chunk 2
#> Request complete!
df
#> # A tibble: 281 x 4
#>                                        instnm unitid md_earn_wne_p10  year
#>                                         <chr>  <int>           <int> <dbl>
#>  1                  Charter Oak State College 128780              NA  2009
#>  2                     Erie Community College 191083           26600  2009
#>  3       Central Connecticut State University 128771           46400  2009
#>  4                  Delaware State University 130934           38100  2009
#>  5                  Gateway Community College 130396           33000  2009
#>  6 Delaware Technical Community College-Terry 130907           30900  2009
#>  7                   Tunxis Community College 130606           35800  2009
#>  8                  Norwalk Community College 130004           34100  2009
#>  9                Asnuntuck Community College 128577           30200  2009
#> 10  University of Maryland-University College 163204           52100  2009
#> # ... with 271 more rows
